2 Transformando nuestros datos (data wrangling) | Ciencia de datos para curiosos
…
¿Cuál es la expectativa de vida al nacer promedio por continente para cada uno de los años?

¿Cuál es el país más pobre y más rico, medido por PIB per cápita, de cada continente para cada uno de los años?

¿Cuál es la diferencia en la expectativa de vida al nacer para cada país con respecto a la media del continente para cada año?

Para responder estas preguntas, tidyverse brinda dos funciones: group_by(), para agrupar observaciones según categorías de una variable, y summarise(), para aplicar alguna transformación sobre cada conjunto de datos. Veamos cómo podríamos resolver estas tres preguntas con estas funciones y otras que ya hemos aprendido.

# Primera pregunta
gapminder_df %>% 
  group_by(year, continent) %>%
  summarise(mean_lifeExp = mean(lifeExp))

## # A tibble: 60 x 3
## # Groups:   year [12]
##     year continent mean_lifeExp
##    <int> <chr>            <dbl>
##  1  1952 Africa            39.1
##  2  1952 Americas          53.3
##  3  1952 Asia              46.3
##  4  1952 Europe            64.4
##  5  1952 Oceania           69.3
##  6  1957 Africa            41.3
##  7  1957 Americas          56.0
##  8  1957 Asia              49.3
##  9  1957 Europe            66.7
## 10  1957 Oceania           70.3
## # … with 50 more rows

# Segunda pregunta
gapminder_df %>% group_by(year, continent) %>%
  summarise(poor_country = min(gdpPercap),
            rich_country = max(gdpPercap),
            poor_country_nom = country[gdpPercap == poor_country],
            rich_country_nom = country[gdpPercap == rich_country])

## # A tibble: 60 x 6
## # Groups:   year [12]
##     year continent poor_country rich_country poor_country_nom       rich_country_nom
##    <int> <chr>            <dbl>        <dbl> <chr>                  <chr>           
##  1  1952 Africa            299.        4725. Lesotho                South Africa    
##  2  1952 Americas         1398.       13990. Dominican Republic     United States   
##  3  1952 Asia              331       108382. Myanmar                Kuwait          
##  4  1952 Europe            974.       14734. Bosnia and Herzegovina Switzerland     
##  5  1952 Oceania         10040.       10557. Australia              New Zealand     
##  6  1957 Africa            336.        5487. Lesotho                South Africa    
##  7  1957 Americas         1544.       14847. Dominican Republic     United States   
##  8  1957 Asia              350       113523. Myanmar                Kuwait          
##  9  1957 Europe           1354.       17909. Bosnia and Herzegovina Switzerland     
## 10  1957 Oceania         10950.       12247. Australia              New Zealand     
## # … with 50 more rows

# Tercera pregunta
gapminder_df %>% group_by(year, continent) %>%
  mutate(dif_lifeExp = lifeExp - mean(lifeExp))

## # A tibble: 1,704 x 7
## # Groups:   year, continent [60]
##    country     continent  year lifeExp      pop gdpPercap dif_lifeExp
##    <chr>       <chr>     <int>   <dbl>    <int>     <dbl>       <dbl>
##  1 Afghanistan Asia       1952    28.8  8425333      779.       -17.5
##  2 Afghanistan Asia       1957    30.3  9240934      821.       -19.0
##  3 Afghanistan Asia       1962    32.0 10267083      853.       -19.6
##  4 Afghanistan Asia       1967    34.0 11537966      836.       -20.6
##  5 Afghanistan Asia       1972    36.1 13079460      740.       -21.2
##  6 Afghanistan Asia       1977    38.4 14880372      786.       -21.2
##  7 Afghanistan Asia       1982    39.9 12881816      978.       -22.8
##  8 Afghanistan Asia       1987    40.8 13867957      852.       -24.0
##  9 Afghanistan Asia       1992    41.7 16317921      649.       -24.9
## 10 Afghanistan Asia       1997    41.8 22227415      635.       -26.3
## # … with 1,694 more rows
…
